<?xml version='1.0' encoding='UTF-8'?>
<glyph name="F_U" format="2">
  <advance width="1290"/>
  <outline>
    <contour>
      <point x="72" y="65" type="curve" smooth="yes"/>
      <point x="118" y="94"/>
      <point x="153" y="64"/>
      <point x="174" y="88" type="curve" smooth="yes"/>
      <point x="198" y="115"/>
      <point x="159" y="170"/>
      <point x="163" y="205" type="curve" smooth="yes"/>
      <point x="167" y="243"/>
      <point x="203" y="249"/>
      <point x="205" y="281" type="curve" smooth="yes"/>
      <point x="207" y="313"/>
      <point x="187" y="351"/>
      <point x="187" y="400" type="curve" smooth="yes"/>
      <point x="187" y="456"/>
      <point x="242" y="476"/>
      <point x="231" y="521" type="curve" smooth="yes"/>
      <point x="223" y="555"/>
      <point x="163" y="531"/>
      <point x="133" y="556" type="curve" smooth="yes"/>
      <point x="102" y="582"/>
      <point x="124" y="648"/>
      <point x="178" y="644" type="curve" smooth="yes"/>
      <point x="221" y="641"/>
      <point x="236" y="617"/>
      <point x="269" y="619" type="curve" smooth="yes"/>
      <point x="308" y="621"/>
      <point x="349" y="655"/>
      <point x="393" y="659" type="curve" smooth="yes"/>
      <point x="437" y="663"/>
      <point x="477" y="623"/>
      <point x="512" y="624" type="curve" smooth="yes"/>
      <point x="547" y="625"/>
      <point x="571" y="649"/>
      <point x="609" y="641" type="curve" smooth="yes"/>
      <point x="645" y="633"/>
      <point x="638" y="587"/>
      <point x="675" y="580" type="curve" smooth="yes"/>
      <point x="732" y="569"/>
      <point x="788" y="705"/>
      <point x="864" y="717" type="curve" smooth="yes"/>
      <point x="901" y="723"/>
      <point x="921" y="700"/>
      <point x="922" y="674" type="curve" smooth="yes"/>
      <point x="923" y="647"/>
      <point x="908" y="639"/>
      <point x="909" y="618" type="curve" smooth="yes"/>
      <point x="910" y="597"/>
      <point x="926" y="582"/>
      <point x="923" y="551" type="curve" smooth="yes"/>
      <point x="916" y="479"/>
      <point x="776" y="408"/>
      <point x="769" y="352" type="curve" smooth="yes"/>
      <point x="765" y="318"/>
      <point x="781" y="303"/>
      <point x="776" y="276" type="curve" smooth="yes"/>
      <point x="770" y="241"/>
      <point x="706" y="188"/>
      <point x="692" y="162" type="curve" smooth="yes"/>
      <point x="664" y="111"/>
      <point x="727" y="51"/>
      <point x="782" y="96" type="curve" smooth="yes"/>
      <point x="818" y="125"/>
      <point x="801" y="170"/>
      <point x="822" y="197" type="curve" smooth="yes"/>
      <point x="844" y="225"/>
      <point x="886" y="224"/>
      <point x="902" y="256" type="curve" smooth="yes"/>
      <point x="926" y="303"/>
      <point x="921" y="364"/>
      <point x="953" y="421" type="curve" smooth="yes"/>
      <point x="980" y="469"/>
      <point x="1014" y="493"/>
      <point x="1030" y="525" type="curve" smooth="yes"/>
      <point x="1046" y="557"/>
      <point x="1036" y="606"/>
      <point x="1055" y="641" type="curve" smooth="yes"/>
      <point x="1083" y="692"/>
      <point x="1171" y="699"/>
      <point x="1168" y="630" type="curve" smooth="yes"/>
      <point x="1166" y="577"/>
      <point x="1132" y="561"/>
      <point x="1114" y="523" type="curve" smooth="yes"/>
      <point x="1091" y="475"/>
      <point x="1101" y="446"/>
      <point x="1071" y="383" type="curve" smooth="yes"/>
      <point x="1044" y="327"/>
      <point x="979" y="280"/>
      <point x="975" y="236" type="curve" smooth="yes"/>
      <point x="971" y="192"/>
      <point x="1021" y="163"/>
      <point x="1066" y="186" type="curve" smooth="yes"/>
      <point x="1111" y="209"/>
      <point x="1146" y="288"/>
      <point x="1181" y="322" type="curve" smooth="yes"/>
      <point x="1216" y="356"/>
      <point x="1271" y="348"/>
      <point x="1257" y="289" type="curve" smooth="yes"/>
      <point x="1246" y="244"/>
      <point x="1180" y="215"/>
      <point x="1151" y="163" type="curve" smooth="yes"/>
      <point x="1125" y="116"/>
      <point x="1114" y="74"/>
      <point x="1081" y="41" type="curve" smooth="yes"/>
      <point x="1042" y="2"/>
      <point x="998" y="-1"/>
      <point x="986" y="40" type="curve" smooth="yes"/>
      <point x="978" y="68"/>
      <point x="999" y="82"/>
      <point x="988" y="100" type="curve" smooth="yes"/>
      <point x="977" y="119"/>
      <point x="948" y="100"/>
      <point x="938" y="119" type="curve" smooth="yes"/>
      <point x="929" y="136"/>
      <point x="948" y="174"/>
      <point x="926" y="181" type="curve" smooth="yes"/>
      <point x="909" y="186"/>
      <point x="885" y="160"/>
      <point x="885" y="123" type="curve" smooth="yes"/>
      <point x="885" y="88"/>
      <point x="904" y="66"/>
      <point x="891" y="36" type="curve" smooth="yes"/>
      <point x="877" y="3"/>
      <point x="836" y="10"/>
      <point x="809" y="1" type="curve" smooth="yes"/>
      <point x="769" y="-12"/>
      <point x="757" y="-34"/>
      <point x="718" y="-29" type="curve" smooth="yes"/>
      <point x="681" y="-24"/>
      <point x="675" y="11"/>
      <point x="657" y="28" type="curve" smooth="yes"/>
      <point x="636" y="48"/>
      <point x="592" y="40"/>
      <point x="580" y="86" type="curve" smooth="yes"/>
      <point x="566" y="140"/>
      <point x="624" y="177"/>
      <point x="651" y="220" type="curve" smooth="yes"/>
      <point x="680" y="266"/>
      <point x="666" y="326"/>
      <point x="673" y="365" type="curve" smooth="yes"/>
      <point x="685" y="430"/>
      <point x="781" y="471"/>
      <point x="804" y="514" type="curve" smooth="yes"/>
      <point x="823" y="549"/>
      <point x="793" y="579"/>
      <point x="751" y="549" type="curve" smooth="yes"/>
      <point x="700" y="512"/>
      <point x="663" y="417"/>
      <point x="601" y="442" type="curve" smooth="yes"/>
      <point x="547" y="464"/>
      <point x="598" y="521"/>
      <point x="561" y="552" type="curve" smooth="yes"/>
      <point x="531" y="577"/>
      <point x="463" y="544"/>
      <point x="425" y="545" type="curve" smooth="yes"/>
      <point x="387" y="546"/>
      <point x="348" y="577"/>
      <point x="322" y="556" type="curve" smooth="yes"/>
      <point x="296" y="535"/>
      <point x="320" y="504"/>
      <point x="320" y="476" type="curve" smooth="yes"/>
      <point x="320" y="451"/>
      <point x="286" y="426"/>
      <point x="288" y="402" type="curve" smooth="yes"/>
      <point x="291" y="366"/>
      <point x="355" y="361"/>
      <point x="378" y="377" type="curve" smooth="yes"/>
      <point x="407" y="396"/>
      <point x="412" y="420"/>
      <point x="437" y="434" type="curve" smooth="yes"/>
      <point x="460" y="447"/>
      <point x="487" y="429"/>
      <point x="488" y="397" type="curve" smooth="yes"/>
      <point x="489" y="353"/>
      <point x="452" y="322"/>
      <point x="442" y="293" type="curve" smooth="yes"/>
      <point x="432" y="261"/>
      <point x="448" y="221"/>
      <point x="432" y="193" type="curve" smooth="yes"/>
      <point x="412" y="160"/>
      <point x="339" y="150"/>
      <point x="336" y="223" type="curve" smooth="yes"/>
      <point x="335" y="246"/>
      <point x="356" y="253"/>
      <point x="354" y="279" type="curve" smooth="yes"/>
      <point x="351" y="313"/>
      <point x="302" y="330"/>
      <point x="283" y="300" type="curve" smooth="yes"/>
      <point x="262" y="268"/>
      <point x="281" y="227"/>
      <point x="278" y="197" type="curve" smooth="yes"/>
      <point x="275" y="166"/>
      <point x="239" y="122"/>
      <point x="254" y="94" type="curve" smooth="yes"/>
      <point x="267" y="70"/>
      <point x="309" y="97"/>
      <point x="332" y="82" type="curve" smooth="yes"/>
      <point x="363" y="62"/>
      <point x="357" y="10"/>
      <point x="313" y="-3" type="curve" smooth="yes"/>
      <point x="269" y="-16"/>
      <point x="221" y="1"/>
      <point x="182" y="-3" type="curve" smooth="yes"/>
      <point x="142" y="-7"/>
      <point x="105" y="-36"/>
      <point x="75" y="-29" type="curve" smooth="yes"/>
      <point x="31" y="-19"/>
      <point x="30" y="38"/>
    </contour>
  </outline>
  <lib>
    <dict>
      <key>com.schriftgestaltung.Glyphs.lastChange</key>
      <string>2024-08-21 13:07:34 +0000</string>
      <key>public.markColor</key>
      <string>0.97,0.9,0,1</string>
    </dict>
  </lib>
</glyph>
