<?xml version='1.0' encoding='UTF-8'?>
<glyph name="O" format="2">
  <advance width="732"/>
  <unicode hex="004F"/>
  <guideline x="179" y="726" angle="0"/>
  <outline>
    <contour>
      <point x="238" y="-49" type="curve" smooth="yes"/>
      <point x="288" y="-57"/>
      <point x="319" y="-23"/>
      <point x="357" y="-15" type="curve" smooth="yes"/>
      <point x="403" y="-6"/>
      <point x="450" y="-15"/>
      <point x="486" y="25" type="curve" smooth="yes"/>
      <point x="523" y="69"/>
      <point x="507" y="126"/>
      <point x="528" y="165" type="curve" smooth="yes"/>
      <point x="556" y="215"/>
      <point x="596" y="222"/>
      <point x="612" y="280" type="curve" smooth="yes"/>
      <point x="625" y="328"/>
      <point x="596" y="368"/>
      <point x="610" y="419" type="curve" smooth="yes"/>
      <point x="626" y="474"/>
      <point x="710" y="497"/>
      <point x="710" y="631" type="curve" smooth="yes"/>
      <point x="710" y="681"/>
      <point x="689" y="718"/>
      <point x="644" y="718" type="curve" smooth="yes"/>
      <point x="616" y="718"/>
      <point x="600" y="696"/>
      <point x="600" y="667" type="curve" smooth="yes"/>
      <point x="600" y="633"/>
      <point x="625" y="606"/>
      <point x="625" y="570" type="curve" smooth="yes"/>
      <point x="625" y="545"/>
      <point x="612" y="532"/>
      <point x="596" y="532" type="curve" smooth="yes"/>
      <point x="556" y="532"/>
      <point x="561" y="587"/>
      <point x="526" y="609" type="curve" smooth="yes"/>
      <point x="495" y="629"/>
      <point x="482" y="610"/>
      <point x="463" y="616" type="curve" smooth="yes"/>
      <point x="443" y="621"/>
      <point x="432" y="647"/>
      <point x="401" y="647" type="curve" smooth="yes"/>
      <point x="358" y="647"/>
      <point x="317" y="593"/>
      <point x="317" y="540" type="curve" smooth="yes"/>
      <point x="317" y="497"/>
      <point x="340" y="486"/>
      <point x="346" y="462" type="curve" smooth="yes"/>
      <point x="349" y="441"/>
      <point x="351" y="396"/>
      <point x="385" y="379" type="curve" smooth="yes"/>
      <point x="418" y="360"/>
      <point x="451" y="375"/>
      <point x="477" y="402" type="curve" smooth="yes"/>
      <point x="512" y="437"/>
      <point x="559" y="408"/>
      <point x="542" y="368" type="curve" smooth="yes"/>
      <point x="526" y="327"/>
      <point x="503" y="323"/>
      <point x="487" y="292" type="curve" smooth="yes"/>
      <point x="471" y="262"/>
      <point x="483" y="218"/>
      <point x="470" y="189" type="curve" smooth="yes"/>
      <point x="457" y="161"/>
      <point x="424" y="149"/>
      <point x="399" y="118" type="curve" smooth="yes"/>
      <point x="372" y="85"/>
      <point x="360" y="38"/>
      <point x="292" y="37" type="curve" smooth="yes"/>
      <point x="230" y="36"/>
      <point x="224" y="85"/>
      <point x="196" y="115" type="curve" smooth="yes"/>
      <point x="172" y="139"/>
      <point x="138" y="137"/>
      <point x="126" y="190" type="curve" smooth="yes"/>
      <point x="117" y="237"/>
      <point x="156" y="256"/>
      <point x="156" y="298" type="curve" smooth="yes"/>
      <point x="156" y="337"/>
      <point x="143" y="370"/>
      <point x="159" y="405" type="curve" smooth="yes"/>
      <point x="178" y="444"/>
      <point x="229" y="455"/>
      <point x="259" y="485" type="curve" smooth="yes"/>
      <point x="274" y="500"/>
      <point x="283" y="519"/>
      <point x="283" y="540" type="curve" smooth="yes"/>
      <point x="283" y="570"/>
      <point x="261" y="593"/>
      <point x="230" y="593" type="curve" smooth="yes"/>
      <point x="197" y="593"/>
      <point x="173" y="576"/>
      <point x="154" y="547" type="curve" smooth="yes"/>
      <point x="130" y="510"/>
      <point x="120" y="461"/>
      <point x="104" y="441" type="curve" smooth="yes"/>
      <point x="77" y="408"/>
      <point x="46" y="393"/>
      <point x="35" y="344" type="curve" smooth="yes"/>
      <point x="22" y="289"/>
      <point x="55" y="260"/>
      <point x="55" y="195" type="curve" smooth="yes"/>
      <point x="55" y="136"/>
      <point x="45" y="112"/>
      <point x="64" y="74" type="curve" smooth="yes"/>
      <point x="79" y="46"/>
      <point x="120" y="32"/>
      <point x="152" y="13" type="curve" smooth="yes"/>
      <point x="182" y="-6"/>
      <point x="197" y="-42"/>
    </contour>
    <contour>
      <point x="467" y="530" type="curve" smooth="yes"/>
      <point x="488" y="519"/>
      <point x="522" y="526"/>
      <point x="522" y="499" type="curve" smooth="yes"/>
      <point x="522" y="476"/>
      <point x="488" y="483"/>
      <point x="471" y="478" type="curve" smooth="yes"/>
      <point x="456" y="474"/>
      <point x="441" y="453"/>
      <point x="424" y="462" type="curve" smooth="yes"/>
      <point x="396" y="477"/>
      <point x="395" y="550"/>
      <point x="421" y="559" type="curve" smooth="yes"/>
      <point x="439" y="565"/>
      <point x="454" y="537"/>
    </contour>
  </outline>
  <lib>
    <dict>
      <key>com.schriftgestaltung.Glyphs.lastChange</key>
      <string>2024-08-21 15:03:20 +0000</string>
    </dict>
  </lib>
</glyph>
