<?xml version='1.0' encoding='UTF-8'?>
<glyph name="y" format="2">
  <advance width="557"/>
  <unicode hex="0079"/>
  <guideline x="557" y="610" angle="90"/>
  <outline>
    <contour>
      <point x="201" y="447" type="curve" smooth="yes"/>
      <point x="228" y="461"/>
      <point x="244" y="499"/>
      <point x="288" y="499" type="curve" smooth="yes"/>
      <point x="317" y="499"/>
      <point x="334" y="476"/>
      <point x="334" y="444" type="curve" smooth="yes"/>
      <point x="334" y="370"/>
      <point x="227" y="304"/>
      <point x="227" y="266" type="curve" smooth="yes"/>
      <point x="227" y="250"/>
      <point x="240" y="239"/>
      <point x="240" y="218" type="curve" smooth="yes"/>
      <point x="240" y="196"/>
      <point x="221" y="153"/>
      <point x="267" y="153" type="curve" smooth="yes"/>
      <point x="297" y="153"/>
      <point x="332" y="173"/>
      <point x="347" y="221" type="curve" smooth="yes"/>
      <point x="361" y="266"/>
      <point x="354" y="301"/>
      <point x="364" y="335" type="curve" smooth="yes"/>
      <point x="372" y="363"/>
      <point x="392" y="375"/>
      <point x="401" y="393" type="curve" smooth="yes"/>
      <point x="411" y="414"/>
      <point x="410" y="457"/>
      <point x="436" y="469" type="curve" smooth="yes"/>
      <point x="464" y="482"/>
      <point x="504" y="464"/>
      <point x="504" y="434" type="curve" smooth="yes"/>
      <point x="504" y="403"/>
      <point x="467" y="373"/>
      <point x="467" y="349" type="curve" smooth="yes"/>
      <point x="467" y="330"/>
      <point x="478" y="319"/>
      <point x="471" y="294" type="curve" smooth="yes"/>
      <point x="460" y="257"/>
      <point x="414" y="214"/>
      <point x="406" y="143" type="curve" smooth="yes"/>
      <point x="400" y="90"/>
      <point x="417" y="80"/>
      <point x="409" y="42" type="curve" smooth="yes"/>
      <point x="400" y="-3"/>
      <point x="359" y="-24"/>
      <point x="343" y="-47" type="curve" smooth="yes"/>
      <point x="329" y="-68"/>
      <point x="344" y="-85"/>
      <point x="325" y="-107" type="curve" smooth="yes"/>
      <point x="307" y="-128"/>
      <point x="287" y="-124"/>
      <point x="258" y="-146" type="curve" smooth="yes"/>
      <point x="229" y="-168"/>
      <point x="221" y="-198"/>
      <point x="190" y="-198" type="curve" smooth="yes"/>
      <point x="159" y="-198"/>
      <point x="151" y="-180"/>
      <point x="128" y="-170" type="curve" smooth="yes"/>
      <point x="108" y="-161"/>
      <point x="58" y="-171"/>
      <point x="47" y="-140" type="curve" smooth="yes"/>
      <point x="36" y="-112"/>
      <point x="59" y="-94"/>
      <point x="63" y="-72" type="curve" smooth="yes"/>
      <point x="68" y="-45"/>
      <point x="56" y="-28"/>
      <point x="76" y="6" type="curve" smooth="yes"/>
      <point x="98" y="43"/>
      <point x="167" y="53"/>
      <point x="167" y="6" type="curve" smooth="yes"/>
      <point x="167" y="-35"/>
      <point x="132" y="-43"/>
      <point x="132" y="-75" type="curve" smooth="yes"/>
      <point x="132" y="-101"/>
      <point x="158" y="-119"/>
      <point x="186" y="-101" type="curve" smooth="yes"/>
      <point x="217" y="-81"/>
      <point x="218" y="-48"/>
      <point x="249" y="-32" type="curve" smooth="yes"/>
      <point x="276" y="-18"/>
      <point x="312" y="-4"/>
      <point x="329" y="38" type="curve" smooth="yes"/>
      <point x="343" y="73"/>
      <point x="329" y="111"/>
      <point x="289" y="85" type="curve" smooth="yes"/>
      <point x="246" y="57"/>
      <point x="206" y="49"/>
      <point x="183" y="73" type="curve" smooth="yes"/>
      <point x="153" y="104"/>
      <point x="169" y="135"/>
      <point x="162" y="157" type="curve" smooth="yes"/>
      <point x="155" y="179"/>
      <point x="132" y="193"/>
      <point x="132" y="224" type="curve" smooth="yes"/>
      <point x="132" y="292"/>
      <point x="234" y="321"/>
      <point x="234" y="365" type="curve" smooth="yes"/>
      <point x="234" y="378"/>
      <point x="225" y="388"/>
      <point x="212" y="388" type="curve" smooth="yes"/>
      <point x="175" y="388"/>
      <point x="159" y="326"/>
      <point x="115" y="326" type="curve" smooth="yes"/>
      <point x="71" y="326"/>
      <point x="47" y="392"/>
      <point x="100" y="420" type="curve" smooth="yes"/>
      <point x="147" y="445"/>
      <point x="169" y="431"/>
    </contour>
  </outline>
  <lib>
    <dict>
      <key>com.schriftgestaltung.Glyphs.lastChange</key>
      <string>2024-08-22 09:49:31 +0000</string>
    </dict>
  </lib>
</glyph>
